[gd_scene load_steps=3 format=2]

[ext_resource path="res://scenes/CameraShake.tscn" type="PackedScene" id=1]
[ext_resource path="res://scripts/MainCamera.gd" type="Script" id=2]

[node name="MainCamera" type="Camera2D"]
anchor_mode = 0
current = true
script = ExtResource( 2 )

[node name="CameraShake" parent="." instance=ExtResource( 1 )]
